<svg width="68px" height="34px" viewBox="0 0 68 34" version="1.1" xmlns="http://www.w3.org/2000/svg" xmlns:xlink="http://www.w3.org/1999/xlink">
    <title>Gold Star Pile</title>
    <desc>Created with Sketch.</desc>
    <defs>
        <path d="M0.122196594,0.00488786375 C16.8393016,3.93717425 32.7101952,0.00488786375 32.7101952,0.00488786375 L32.7101952,1.9264293 C32.7101952,1.9264293 16.8393016,5.81961278 0.122196594,1.9264293 L0.122196594,0.00488786375 Z" id="path-1"></path>
        <linearGradient x1="50%" y1="0%" x2="50%" y2="100%" id="linearGradient-3">
            <stop stop-color="#FAD961" offset="0%"></stop>
            <stop stop-color="#F76B1C" offset="100%"></stop>
        </linearGradient>
        <path d="M0.122196594,0.0305491484 C16.8393016,3.96222455 32.7101952,0.0305491484 32.7101952,0.0305491484 L32.7101952,1.95209059 C32.7101952,1.95209059 16.8393016,5.84527406 0.122196594,1.95209059 L0.122196594,0.0305491484 Z" id="path-4"></path>
        <path d="M0.122196594,0.131972321 C16.8393016,4.06425871 32.7101952,0.131972321 32.7101952,0.131972321 L32.7101952,2.05412474 C32.7101952,2.05412474 16.8393016,5.94730822 0.122196594,2.05412474 L0.122196594,0.131972321 Z" id="path-6"></path>
        <path d="M0.325653922,0.00488786375 C17.042148,3.93717425 32.9142635,0.00488786375 32.9142635,0.00488786375 L32.9142635,1.9264293 C32.9142635,1.9264293 17.042148,5.81961278 0.325653922,1.9264293 L0.325653922,0.00488786375 Z" id="path-8"></path>
        <path d="M0.325653922,0.0305491484 C17.042148,3.96222455 32.9142635,0.0305491484 32.9142635,0.0305491484 L32.9142635,1.95209059 C32.9142635,1.95209059 17.042148,5.84527406 0.325653922,1.95209059 L0.325653922,0.0305491484 Z" id="path-10"></path>
        <path d="M16.9382808,0.213233056 C7.88656816,0.213233056 0.548662706,7.55113851 0.548662706,16.6034622 C0.548662706,25.6551749 7.88656816,32.9930803 16.9382808,32.9930803 C25.9899935,32.9930803 33.32851,25.6551749 33.32851,16.6034622 C33.32851,7.55113851 25.9899935,0.213233056 16.9382808,0.213233056 Z" id="path-12"></path>
    </defs>
    <g id="Get-More-Stars-Modal" stroke="none" stroke-width="1" fill="none" fill-rule="evenodd" transform="translate(-224.000000, -74.000000)">
        <g id="Gold-Star-Pile" transform="translate(224.000000, 74.000000)">
            <g id="Group-3" stroke-width="1" transform="translate(0.000000, 29.724810)">
                <mask id="mask-2" fill="white">
                    <use xlink:href="#path-1"></use>
                </mask>
                <g id="Clip-2"></g>
                <path d="M0.122196594,0.00488786375 L0.122196594,1.9264293 C16.8393016,5.81961278 32.7101952,1.9264293 32.7101952,1.9264293 L32.7101952,0.00488786375 C32.7101952,0.00488786375 16.8393016,3.93717425 0.122196594,0.00488786375" id="Fill-1" fill="url(#linearGradient-3)" mask="url(#mask-2)"></path>
            </g>
            <path d="M0.122196594,27.616308 L0.122196594,29.5384604 C16.8393016,33.4322549 32.7101952,29.5384604 32.7101952,29.5384604 L32.7101952,27.616308 C32.7101952,27.616308 16.8393016,31.5485944 0.122196594,27.616308" id="Fill-4" fill="url(#linearGradient-3)"></path>
            <g id="Group-8" stroke-width="1" transform="translate(0.000000, 25.447929)">
                <mask id="mask-5" fill="white">
                    <use xlink:href="#path-4"></use>
                </mask>
                <g id="Clip-7"></g>
                <path d="M0.122196594,0.0305491484 L0.122196594,1.95209059 C16.8393016,5.84527406 32.7101952,1.95209059 32.7101952,1.95209059 L32.7101952,0.0305491484 C32.7101952,0.0305491484 16.8393016,3.96222455 0.122196594,0.0305491484" id="Fill-6" fill="url(#linearGradient-3)" mask="url(#mask-5)"></path>
            </g>
            <path d="M0.122196594,23.3650885 L0.122196594,25.2872409 C16.8393016,29.1804244 32.7101952,25.2872409 32.7101952,25.2872409 L32.7101952,23.3650885 C32.7101952,23.3650885 16.8393016,27.2967639 0.122196594,23.3650885" id="Fill-9" fill="url(#linearGradient-3)"></path>
            <path d="M0.122196594,21.2523094 L0.122196594,23.1744618 C16.8393016,27.0676453 32.7101952,23.1744618 32.7101952,23.1744618 L32.7101952,21.2523094 C32.7101952,21.2523094 16.8393016,25.1839848 0.122196594,21.2523094" id="Fill-11" fill="url(#linearGradient-3)"></path>
            <path d="M0.122196594,19.1395303 L0.122196594,21.0610717 C16.8393016,24.9542552 32.7101952,21.0610717 32.7101952,21.0610717 L32.7101952,19.1395303 C32.7101952,19.1395303 16.8393016,23.0712057 0.122196594,19.1395303" id="Fill-13" fill="url(#linearGradient-3)"></path>
            <path d="M0.122196594,17.0010899 L0.122196594,18.9226313 C16.8393016,22.8158148 32.7101952,18.9226313 32.7101952,18.9226313 L32.7101952,17.0010899 C32.7101952,17.0010899 16.8393016,20.9333763 0.122196594,17.0010899" id="Fill-15" fill="url(#linearGradient-3)"></path>
            <path d="M0.122196594,14.8876998 L0.122196594,16.8098522 C16.8393016,20.7024247 32.7101952,16.8098522 32.7101952,16.8098522 L32.7101952,14.8876998 C32.7101952,14.8876998 16.8393016,18.8199862 0.122196594,14.8876998" id="Fill-17" fill="url(#linearGradient-3)"></path>
            <g id="Group-21" stroke-width="1" transform="translate(0.000000, 12.617287)">
                <mask id="mask-7" fill="white">
                    <use xlink:href="#path-6"></use>
                </mask>
                <g id="Clip-20"></g>
                <path d="M0.122196594,0.131972321 L0.122196594,2.05412474 C16.8393016,5.94730822 32.7101952,2.05412474 32.7101952,2.05412474 L32.7101952,0.131972321 C32.7101952,0.131972321 16.8393016,4.06425871 0.122196594,0.131972321" id="Fill-19" fill="url(#linearGradient-3)" mask="url(#mask-7)"></path>
            </g>
            <g id="Group-24" stroke-width="1" transform="translate(34.826029, 29.724810)">
                <mask id="mask-9" fill="white">
                    <use xlink:href="#path-8"></use>
                </mask>
                <g id="Clip-23"></g>
                <path d="M0.325653922,0.00488786375 L0.325653922,1.9264293 C17.042148,5.81961278 32.9142635,1.9264293 32.9142635,1.9264293 L32.9142635,0.00488786375 C32.9142635,0.00488786375 17.042148,3.93717425 0.325653922,0.00488786375" id="Fill-22" fill="url(#linearGradient-3)" mask="url(#mask-9)"></path>
            </g>
            <path d="M35.1516832,27.616308 L35.1516832,29.5384604 C51.8681772,33.4322549 67.7402928,29.5384604 67.7402928,29.5384604 L67.7402928,27.616308 C67.7402928,27.616308 51.8681772,31.5485944 35.1516832,27.616308" id="Fill-25" fill="url(#linearGradient-3)"></path>
            <path d="M0,10.5272366 L0,11.2457525 C0,11.2457525 18.1248098,13.9750134 32.5886096,11.2457525 L32.5886096,10.5272366 C32.5886096,9.60526325 24.6928767,9.16474453 16.6749472,9.16474453 C8.40284877,9.16474453 0,9.63336847 0,10.5272366" id="Fill-47" fill="url(#linearGradient-3)"></path>
            <g id="Group-29" stroke-width="1" transform="translate(34.826029, 25.447929)">
                <mask id="mask-11" fill="white">
                    <use xlink:href="#path-10"></use>
                </mask>
                <g id="Clip-28"></g>
                <path d="M0.325653922,1.95209059 C17.042148,5.84527406 32.9142635,1.95209059 32.9142635,1.95209059 L32.9142635,0.0305491484 C32.9142635,0.0305491484 17.042148,3.96222455 0.325653922,0.0305491484 L0.325653922,1.95209059 Z" id="Fill-27" fill="url(#linearGradient-3)" mask="url(#mask-11)"></path>
            </g>
            <path d="M35.1516832,23.3650885 L35.1516832,25.2872409 C51.8681772,29.1804244 67.7402928,25.2872409 67.7402928,25.2872409 L67.7402928,23.3650885 C67.7402928,23.3650885 51.8681772,27.2967639 35.1516832,23.3650885" id="Fill-30" fill="url(#linearGradient-3)"></path>
            <path d="M35.1516832,21.2523094 L35.1516832,23.1744618 C51.8681772,27.0676453 67.7402928,23.1744618 67.7402928,23.1744618 L67.7402928,21.2523094 C67.7402928,21.2523094 51.8681772,25.1839848 35.1516832,21.2523094" id="Fill-32" fill="url(#linearGradient-3)"></path>
            <path d="M35.1516832,19.1395303 L35.1516832,21.0610717 C51.8681772,24.9542552 67.7402928,21.0610717 67.7402928,21.0610717 L67.7402928,19.1395303 C67.7402928,19.1395303 51.8681772,23.0712057 35.1516832,19.1395303" id="Fill-34" fill="url(#linearGradient-3)"></path>
            <path d="M35.1516832,17.0010899 L35.1516832,18.9226313 C51.8681772,22.8158148 67.7402928,18.9226313 67.7402928,18.9226313 L67.7402928,17.0010899 C67.7402928,17.0010899 51.8681772,20.9333763 35.1516832,17.0010899" id="Fill-36" fill="url(#linearGradient-3)"></path>
            <path d="M35.1516832,16.8098522 C51.8681772,20.7024247 67.7402928,16.8098522 67.7402928,16.8098522 L67.7402928,14.8876998 C67.7402928,14.8876998 51.8681772,18.8199862 35.1516832,14.8876998 L35.1516832,16.8098522 Z" id="Fill-38" fill="url(#linearGradient-3)"></path>
            <g id="Group-42" stroke-width="1" transform="translate(0.000000, 8.951389)" fill="url(#linearGradient-3)">
                <path d="M0.122196594,2.403607 C0.122196594,2.403607 18.2470064,5.13286792 32.7101952,2.403607 L32.7101952,1.68509103 C32.7101952,0.763117728 24.8156843,0.322599008 16.7989767,0.322599008 C8.52565635,0.321988025 0.122196594,0.791222945 0.122196594,1.68509103 L0.122196594,2.403607 Z" id="Fill-40"></path>
            </g>
            <path d="M32.6961426,10.577215 C32.6252686,10.5949335 25.5366442,12.3221823 16.000422,12.3227933 C10.3995411,12.3227933 5.0619939,11.7356387 0.136249202,10.577215 L0.0610982969,10.5594965 L0.0610982969,12.6069004 L0.108143986,12.6178981 C5.04244244,13.767157 10.3897654,14.3500348 16.000422,14.3500348 C25.5537517,14.3500348 32.6545958,12.6350056 32.7254698,12.6178981 L32.7719045,12.6062894 L32.7719045,10.5582745 L32.6961426,10.577215 Z" id="Fill-43" fill="url(#linearGradient-3)"></path>
            <path d="M32.8330028,10.4801909 L32.681479,10.5180718 C32.611216,10.5351793 25.5280904,12.2618172 16.001033,12.2618172 C10.403818,12.2618172 5.07115864,11.6746626 0.15030181,10.5174608 L0,10.4820238 L0,10.6366025 L0,12.5581439 L0,12.6559012 L0.0947023602,12.6772856 C5.0332777,13.8277666 10.3848775,14.4112553 16.001033,14.4112553 C25.5610835,14.4112553 32.6692594,12.6943931 32.7401334,12.6772856 L32.8330028,12.6546793 L32.8330028,12.5581439 L32.8330028,10.6366025 L32.8330028,10.4801909 Z M32.7108062,10.6366025 L32.7108062,12.5581439 C32.7108062,12.5581439 25.6570078,14.2884477 16.001033,14.2884477 C11.1730456,14.2884477 5.69436127,13.8558718 0.122196594,12.5581439 L0.122196594,10.6366025 C5.69497225,11.947161 11.1724346,12.3840138 16.001033,12.3840138 C25.6557858,12.3840138 32.7108062,10.6366025 32.7108062,10.6366025 Z" id="Fill-45" fill="#FFFFFF"></path>
            <path d="M35.1516832,12.7492594 L35.1516832,13.4677754 C35.1516832,13.4677754 53.2764929,16.1970363 67.7402928,13.4677754 L67.7402928,12.7492594 C67.7402928,11.8272861 59.8445598,11.3867674 51.8266303,11.3867674 C43.5545319,11.3867674 35.1516832,11.8553913 35.1516832,12.7492594" id="Fill-47" fill="url(#linearGradient-3)"></path>
            <path d="M67.7262401,12.6899941 C67.6553661,12.7071016 60.5673527,14.4355724 51.0305195,14.4355724 C45.4290277,14.4361834 40.0914805,13.8490288 35.1663467,12.6899941 L35.0911958,12.6722756 L35.0911958,14.7196795 L35.1382415,14.7306772 C40.07254,15.8799361 45.4192519,16.4628139 51.0305195,16.4628139 L51.0317415,16.4628139 C60.5838492,16.4628139 67.6840823,14.7477847 67.7549563,14.7306772 L67.802002,14.7196795 L67.802002,12.6710536 L67.7262401,12.6899941 Z" id="Fill-49" fill="url(#linearGradient-3)"></path>
            <g id="Group-57" stroke-width="1" transform="translate(11.608676, 9.562372)" fill="#FFFFFF">
                <path d="M56.2538129,3.03090321 L56.1022892,3.06878416 C56.0320261,3.08589168 48.9495115,4.81252955 39.4218431,4.81252955 C33.8252391,4.81252955 28.4919688,4.2259859 23.571112,3.06817318 L23.4208101,3.03273616 L23.4208101,3.18670387 L23.4208101,5.10885629 L23.4208101,5.20600258 L23.5155125,5.22799797 C28.4540878,6.3784789 33.8062987,6.96135665 39.4218431,6.96135665 C48.9825046,6.96135665 56.0900695,5.24510549 56.1609435,5.22799797 L56.2538129,5.20478062 L56.2538129,5.10885629 L56.2538129,3.18670387 L56.2538129,3.03090321 Z M56.1316163,3.18670387 L56.1316163,5.10885629 C56.1316163,5.10885629 49.077818,6.83916006 39.4218431,6.83916006 C34.5938557,6.83916006 29.1151714,6.40658412 23.5430067,5.10885629 L23.5430067,3.18670387 C29.1157824,4.49787332 34.5932447,4.93472615 39.4218431,4.93472615 C49.076596,4.93472615 56.1316163,3.18670387 56.1316163,3.18670387 Z" id="Fill-51"></path>
                <path d="M1.89276414,1.66602836 C1.93064508,1.62631447 1.96852603,1.58293468 2.00946189,1.54077685 C2.1200498,1.42285714 2.23063772,1.30554841 2.34305859,1.1876287 C2.3534453,1.17724198 2.33511581,1.17113215 2.29784585,1.16441134 C1.79867276,1.07520783 1.29583378,0.986615298 0.798493642,0.898022768 C0.681184912,0.876638364 0.564487165,0.855864943 0.446567452,0.835091522 C0.334757569,0.814929084 0.288322863,0.791100748 0.335979535,0.762995532 C0.387302104,0.734890315 0.508887715,0.722059673 0.66835427,0.717171809 C1.52250846,0.695176422 2.37666265,0.672570052 3.23081684,0.649352699 C3.26625385,0.648130733 3.30902266,0.640187955 3.33101805,0.632856159 C3.70799454,0.494163025 4.08374907,0.354858908 4.45950359,0.214943808 C4.552373,0.181339745 4.70084186,0.167287137 4.89757838,0.175229915 C5.02649579,0.180117779 5.10286866,0.196003336 5.15724614,0.216165774 C5.52933477,0.354858908 5.90936618,0.494163025 6.28267677,0.632856159 C6.31017101,0.644464836 6.34927392,0.648741716 6.41709302,0.651185648 C7.26941427,0.672570052 8.12173551,0.695176422 8.97161282,0.718393775 C9.12130365,0.722670656 9.23494648,0.737334247 9.28199217,0.764828481 C9.32720491,0.792322714 9.27588234,0.81615105 9.16346147,0.836313488 C8.62151958,0.932848797 8.0789667,1.02938411 7.53580284,1.12591942 C7.47531553,1.13630613 7.41727214,1.1479148 7.35006402,1.15769053 C7.27857901,1.16868822 7.2608605,1.1802969 7.27857901,1.19679344 C7.42399296,1.3489282 7.56390806,1.50106296 7.709322,1.65319772 C7.73742722,1.68130293 7.70015726,1.70696422 7.56879592,1.72468272 C7.43804557,1.74179025 7.29874145,1.73934632 7.1606593,1.72651567 C6.40976123,1.6538087 5.65947414,1.58232369 4.90979804,1.50961672 C4.83648008,1.50228492 4.7821026,1.50167394 4.70756268,1.50961672 C3.96460739,1.58171271 3.21859718,1.65258673 2.47319796,1.72468272 C2.34916842,1.7362914 2.22330593,1.74179025 2.08950066,1.72895961 C1.95630637,1.71612896 1.897652,1.69535554 1.89276414,1.66602836" id="Fill-53"></path>
                <path d="M36.9225562,3.89813244 C36.9604371,3.85841855 36.9983181,3.81503876 37.038643,3.77288093 C37.1498419,3.65496122 37.2604298,3.53765249 37.3722397,3.41973278 C37.3832373,3.40934607 37.3649079,3.40323624 37.3276379,3.39651542 C36.8284648,3.30792289 36.3256258,3.21871938 35.8282857,3.13012685 C35.710977,3.10874244 35.5942792,3.08796902 35.4763595,3.0671956 C35.3645496,3.04703316 35.3175039,3.02320483 35.3657716,2.9957106 C35.4164832,2.96760538 35.5380688,2.95416375 35.6975353,2.94988687 C36.5523005,2.9272805 37.4064547,2.90528512 38.2606089,2.88145678 C38.2960459,2.88023481 38.3388147,2.87229204 38.3608101,2.86496024 C38.7377866,2.72626711 39.1135411,2.58696299 39.4892956,2.44765887 C39.5821651,2.41344383 39.7306339,2.39939122 39.9267594,2.407334 C40.0562878,2.41222186 40.1326607,2.42810742 40.1864272,2.44826985 C40.5591268,2.58696299 40.9391582,2.72626711 41.3124688,2.86496024 C41.3399631,2.87656892 41.379066,2.8808458 41.4468851,2.88328973 C42.2992063,2.90528512 43.1515276,2.9272805 44.0014049,2.95049786 C44.1504847,2.95477474 44.2647385,2.96943833 44.3111732,2.99693256 C44.356997,3.02503778 44.3056744,3.04825513 44.1932535,3.06841757 C43.6513116,3.16495288 43.1087588,3.26148819 42.5655949,3.3580235 C42.5051076,3.36841021 42.4470642,3.38062987 42.3798561,3.38979461 C42.3083711,3.4007923 42.2900416,3.41240098 42.3083711,3.42889752 C42.453785,3.58103228 42.5937001,3.73316704 42.7391141,3.8853018 C42.7672193,3.914018 42.7299493,3.9390683 42.598588,3.95678681 C42.4678376,3.97389433 42.3279225,3.9714504 42.1898404,3.95861975 C41.4395533,3.88591278 40.6886552,3.81442777 39.9395901,3.7417208 C39.8662721,3.734389 39.8118947,3.73377802 39.7373547,3.7417208 C38.9937885,3.81381679 38.2483892,3.88469081 37.50299,3.95678681 C37.3789605,3.96839548 37.253098,3.97450531 37.1186817,3.96106369 C36.9854874,3.94823304 36.9274441,3.92745962 36.9225562,3.89813244" id="Fill-55"></path>
            </g>
            <g id="Group-60" stroke-width="1" transform="translate(23.828336, 0.397628)">
                <mask id="mask-13" fill="white">
                    <use xlink:href="#path-12"></use>
                </mask>
                <g id="Clip-59"></g>
                <path d="M16.9382808,0.213233056 C7.88656816,0.213233056 0.548662706,7.55113851 0.548662706,16.6034622 C0.548662706,25.6551749 7.88656816,32.9930803 16.9382808,32.9930803 C25.9899935,32.9930803 33.32851,25.6551749 33.32851,16.6034622 C33.32851,7.55113851 25.9899935,0.213233056 16.9382808,0.213233056 Z" id="Fill-58" fill="url(#linearGradient-3)" mask="url(#mask-13)"></path>
            </g>
            <g id="Group-65" stroke-width="1" transform="translate(28.105217, 4.063526)">
                <path d="M25.0119931,12.9372589 C25.0119931,19.7582727 19.4825972,25.2876686 12.6615834,25.2876686 C5.8405695,25.2876686 0.310562643,19.7582727 0.310562643,12.9372589 C0.310562643,6.11624501 5.8405695,0.586849142 12.6615834,0.586849142 C19.4825972,0.586849142 25.0119931,6.11624501 25.0119931,12.9372589 Z" id="Stroke-61" stroke="#FFFFFF"></path>
                <path d="M8.0646697,19.0775155 C8.12393505,18.7316992 8.18381138,18.3614435 8.24796459,17.9954647 C8.42270572,16.9769561 8.59683586,15.9639463 8.77463191,14.9460487 C8.79112845,14.8556232 8.76180127,14.8036896 8.70253592,14.7450353 C7.91558985,13.9788626 7.12314494,13.21269 6.33925379,12.4452954 C6.15351497,12.2650554 5.97022008,12.0817605 5.78448126,11.9033535 C5.60790718,11.7310563 5.53336726,11.5239331 5.60912915,11.2844277 C5.6897789,11.0394236 5.88162755,10.9245588 6.13274155,10.8872888 C7.48056998,10.6929962 8.82778743,10.5011476 10.1743939,10.2995232 C10.2306043,10.2891365 10.2978125,10.2182625 10.3326385,10.1565532 C10.9271249,8.95658264 11.5197784,7.75477914 12.1118209,6.55175367 C12.2584568,6.25970381 12.4930743,6.13750722 12.8028426,6.20593731 C13.0063,6.24748415 13.1272746,6.38251139 13.2122012,6.55969645 C13.7993558,7.75722307 14.3987301,8.95658264 14.9871067,10.1565532 C15.0304865,10.2536995 15.0928068,10.2964683 15.1997288,10.3141868 C16.5438913,10.5011476 17.8874429,10.6954402 19.2279395,10.8952316 C19.463168,10.9300576 19.642797,11.0583641 19.7167259,11.2966474 C19.7888219,11.5361527 19.7075612,11.740832 19.5309871,11.9131292 C18.6756109,12.74651 17.8196238,13.5798908 16.9636366,14.4126605 C16.8677123,14.5018641 16.7760649,14.6069531 16.6703648,14.6912688 C16.557944,14.7816943 16.5292278,14.8812845 16.557944,15.0260875 C16.7870626,16.3384789 17.0076274,17.6527032 17.237357,18.9638727 C17.2813478,19.2125428 17.2226934,19.4306637 17.0149592,19.5827984 C16.8096689,19.7282124 16.5891041,19.7104939 16.3715941,19.596851 C15.1881201,18.9724264 14.0040351,18.3541117 12.8230051,17.7278541 C12.7069183,17.6649229 12.6213807,17.661257 12.503461,17.7254102 C11.3309847,18.3492238 10.1554534,18.9626507 8.98053317,19.5827984 C8.78379665,19.6829996 8.58583817,19.7331002 8.37443806,19.6219013 C8.16425992,19.5076475 8.07200149,19.3292405 8.0646697,19.0775155" id="Fill-63" fill="#FFFFFF"></path>
            </g>
        </g>
    </g>
</svg>
