<?xml version="1.0" encoding="UTF-8" standalone="no"?>
<svg width="68px" height="45px" viewBox="0 0 68 45" version="1.1" xmlns="http://www.w3.org/2000/svg" xmlns:xlink="http://www.w3.org/1999/xlink">
    <!-- Generator: sketchtool 50.2 (55047) - http://www.bohemiancoding.com/sketch -->
    <title>BBDF0821-774E-4747-A2A3-445000C5D0D2</title>
    <desc>Created with sketchtool.</desc>
    <defs>
        <path d="M0.122196594,0.00488786375 C16.8393016,3.93717425 32.7101952,0.00488786375 32.7101952,0.00488786375 L32.7101952,1.9264293 C32.7101952,1.9264293 16.8393016,5.81961278 0.122196594,1.9264293 L0.122196594,0.00488786375 Z" id="path-1"></path>
        <linearGradient x1="50%" y1="0%" x2="50%" y2="100%" id="linearGradient-3">
            <stop stop-color="#FAD961" offset="0%"></stop>
            <stop stop-color="#F76B1C" offset="100%"></stop>
        </linearGradient>
        <path d="M0.122196594,0.0305491484 C16.8393016,3.96222455 32.7101952,0.0305491484 32.7101952,0.0305491484 L32.7101952,1.95209059 C32.7101952,1.95209059 16.8393016,5.84527406 0.122196594,1.95209059 L0.122196594,0.0305491484 Z" id="path-4"></path>
        <path d="M0.122196594,0.131972321 C16.8393016,4.06425871 32.7101952,0.131972321 32.7101952,0.131972321 L32.7101952,2.05412474 C32.7101952,2.05412474 16.8393016,5.94730822 0.122196594,2.05412474 L0.122196594,0.131972321 Z" id="path-6"></path>
        <path d="M0.325653922,0.00488786375 C17.042148,3.93717425 32.9142635,0.00488786375 32.9142635,0.00488786375 L32.9142635,1.9264293 C32.9142635,1.9264293 17.042148,5.81961278 0.325653922,1.9264293 L0.325653922,0.00488786375 Z" id="path-8"></path>
        <path d="M0.325653922,0.0305491484 C17.042148,3.96222455 32.9142635,0.0305491484 32.9142635,0.0305491484 L32.9142635,1.95209059 C32.9142635,1.95209059 17.042148,5.84527406 0.325653922,1.95209059 L0.325653922,0.0305491484 Z" id="path-10"></path>
        <path d="M0.122196594,0.00488786375 C16.8393016,3.93717425 32.7101952,0.00488786375 32.7101952,0.00488786375 L32.7101952,1.9264293 C32.7101952,1.9264293 16.8393016,5.81961278 0.122196594,1.9264293 L0.122196594,0.00488786375 Z" id="path-12"></path>
        <path d="M0.122196594,0.0305491484 C16.8393016,3.96222455 32.7101952,0.0305491484 32.7101952,0.0305491484 L32.7101952,1.95209059 C32.7101952,1.95209059 16.8393016,5.84527406 0.122196594,1.95209059 L0.122196594,0.0305491484 Z" id="path-14"></path>
        <path d="M0.122196594,0.131972321 C16.8393016,4.06425871 32.7101952,0.131972321 32.7101952,0.131972321 L32.7101952,2.05412474 C32.7101952,2.05412474 16.8393016,5.94730822 0.122196594,2.05412474 L0.122196594,0.131972321 Z" id="path-16"></path>
        <path d="M0.325653922,0.00488786375 C17.042148,3.93717425 32.9142635,0.00488786375 32.9142635,0.00488786375 L32.9142635,1.9264293 C32.9142635,1.9264293 17.042148,5.81961278 0.325653922,1.9264293 L0.325653922,0.00488786375 Z" id="path-18"></path>
        <path d="M0.325653922,0.0305491484 C17.042148,3.96222455 32.9142635,0.0305491484 32.9142635,0.0305491484 L32.9142635,1.95209059 C32.9142635,1.95209059 17.042148,5.84527406 0.325653922,1.95209059 L0.325653922,0.0305491484 Z" id="path-20"></path>
        <path d="M16.9382808,0.213233056 C7.88656816,0.213233056 0.548662706,7.55113851 0.548662706,16.6034622 C0.548662706,25.6551749 7.88656816,32.9930803 16.9382808,32.9930803 C25.9899935,32.9930803 33.32851,25.6551749 33.32851,16.6034622 C33.32851,7.55113851 25.9899935,0.213233056 16.9382808,0.213233056 Z" id="path-22"></path>
    </defs>
    <g id="Choicely-Screens" stroke="none" stroke-width="1" fill="none" fill-rule="evenodd">
        <g id="Widget-Grid-/-Thank-you-Modal" transform="translate(-271.000000, -468.000000)">
            <g id="Group-74" transform="translate(10.000000, 153.000000)">
                <g id="Group-39" transform="translate(261.000000, 315.000000)">
                    <g id="Group-3" transform="translate(0.000000, 40.724810)">
                        <mask id="mask-2" fill="white">
                            <use xlink:href="#path-1"></use>
                        </mask>
                        <g id="Clip-2"></g>
                        <path d="M0.122196594,0.00488786375 L0.122196594,1.9264293 C16.8393016,5.81961278 32.7101952,1.9264293 32.7101952,1.9264293 L32.7101952,0.00488786375 C32.7101952,0.00488786375 16.8393016,3.93717425 0.122196594,0.00488786375" id="Fill-1" fill="url(#linearGradient-3)" mask="url(#mask-2)"></path>
                    </g>
                    <path d="M0.122196594,38.616308 L0.122196594,40.5384604 C16.8393016,44.4322549 32.7101952,40.5384604 32.7101952,40.5384604 L32.7101952,38.616308 C32.7101952,38.616308 16.8393016,42.5485944 0.122196594,38.616308" id="Fill-4" fill="url(#linearGradient-3)"></path>
                    <g id="Group-8" transform="translate(0.000000, 36.447929)">
                        <mask id="mask-5" fill="white">
                            <use xlink:href="#path-4"></use>
                        </mask>
                        <g id="Clip-7"></g>
                        <path d="M0.122196594,0.0305491484 L0.122196594,1.95209059 C16.8393016,5.84527406 32.7101952,1.95209059 32.7101952,1.95209059 L32.7101952,0.0305491484 C32.7101952,0.0305491484 16.8393016,3.96222455 0.122196594,0.0305491484" id="Fill-6" fill="url(#linearGradient-3)" mask="url(#mask-5)"></path>
                    </g>
                    <path d="M0.122196594,34.3650885 L0.122196594,36.2872409 C16.8393016,40.1804244 32.7101952,36.2872409 32.7101952,36.2872409 L32.7101952,34.3650885 C32.7101952,34.3650885 16.8393016,38.2967639 0.122196594,34.3650885" id="Fill-9" fill="url(#linearGradient-3)"></path>
                    <path d="M0.122196594,32.2523094 L0.122196594,34.1744618 C16.8393016,38.0676453 32.7101952,34.1744618 32.7101952,34.1744618 L32.7101952,32.2523094 C32.7101952,32.2523094 16.8393016,36.1839848 0.122196594,32.2523094" id="Fill-11" fill="url(#linearGradient-3)"></path>
                    <path d="M0.122196594,30.1395303 L0.122196594,32.0610717 C16.8393016,35.9542552 32.7101952,32.0610717 32.7101952,32.0610717 L32.7101952,30.1395303 C32.7101952,30.1395303 16.8393016,34.0712057 0.122196594,30.1395303" id="Fill-13" fill="url(#linearGradient-3)"></path>
                    <path d="M0.122196594,28.0010899 L0.122196594,29.9226313 C16.8393016,33.8158148 32.7101952,29.9226313 32.7101952,29.9226313 L32.7101952,28.0010899 C32.7101952,28.0010899 16.8393016,31.9333763 0.122196594,28.0010899" id="Fill-15" fill="url(#linearGradient-3)"></path>
                    <path d="M0.122196594,25.8876998 L0.122196594,27.8098522 C16.8393016,31.7024247 32.7101952,27.8098522 32.7101952,27.8098522 L32.7101952,25.8876998 C32.7101952,25.8876998 16.8393016,29.8199862 0.122196594,25.8876998" id="Fill-17" fill="url(#linearGradient-3)"></path>
                    <g id="Group-21" transform="translate(0.000000, 23.617287)">
                        <mask id="mask-7" fill="white">
                            <use xlink:href="#path-6"></use>
                        </mask>
                        <g id="Clip-20"></g>
                        <path d="M0.122196594,0.131972321 L0.122196594,2.05412474 C16.8393016,5.94730822 32.7101952,2.05412474 32.7101952,2.05412474 L32.7101952,0.131972321 C32.7101952,0.131972321 16.8393016,4.06425871 0.122196594,0.131972321" id="Fill-19" fill="url(#linearGradient-3)" mask="url(#mask-7)"></path>
                    </g>
                    <g id="Group-24" transform="translate(34.826029, 40.724810)">
                        <mask id="mask-9" fill="white">
                            <use xlink:href="#path-8"></use>
                        </mask>
                        <g id="Clip-23"></g>
                        <path d="M0.325653922,0.00488786375 L0.325653922,1.9264293 C17.042148,5.81961278 32.9142635,1.9264293 32.9142635,1.9264293 L32.9142635,0.00488786375 C32.9142635,0.00488786375 17.042148,3.93717425 0.325653922,0.00488786375" id="Fill-22" fill="url(#linearGradient-3)" mask="url(#mask-9)"></path>
                    </g>
                    <path d="M35.1516832,38.616308 L35.1516832,40.5384604 C51.8681772,44.4322549 67.7402928,40.5384604 67.7402928,40.5384604 L67.7402928,38.616308 C67.7402928,38.616308 51.8681772,42.5485944 35.1516832,38.616308" id="Fill-25" fill="url(#linearGradient-3)"></path>
                    <path d="M0,21.5272366 L0,22.2457525 C0,22.2457525 18.1248098,24.9750134 32.5886096,22.2457525 L32.5886096,21.5272366 C32.5886096,20.6052633 24.6928767,20.1647445 16.6749472,20.1647445 C8.40284877,20.1647445 0,20.6333685 0,21.5272366" id="Fill-47" fill="url(#linearGradient-3)"></path>
                    <g id="Group-29" transform="translate(34.826029, 36.447929)">
                        <mask id="mask-11" fill="white">
                            <use xlink:href="#path-10"></use>
                        </mask>
                        <g id="Clip-28"></g>
                        <path d="M0.325653922,1.95209059 C17.042148,5.84527406 32.9142635,1.95209059 32.9142635,1.95209059 L32.9142635,0.0305491484 C32.9142635,0.0305491484 17.042148,3.96222455 0.325653922,0.0305491484 L0.325653922,1.95209059 Z" id="Fill-27" fill="url(#linearGradient-3)" mask="url(#mask-11)"></path>
                    </g>
                    <path d="M35.1516832,34.3650885 L35.1516832,36.2872409 C51.8681772,40.1804244 67.7402928,36.2872409 67.7402928,36.2872409 L67.7402928,34.3650885 C67.7402928,34.3650885 51.8681772,38.2967639 35.1516832,34.3650885" id="Fill-30" fill="url(#linearGradient-3)"></path>
                    <path d="M35.1516832,32.2523094 L35.1516832,34.1744618 C51.8681772,38.0676453 67.7402928,34.1744618 67.7402928,34.1744618 L67.7402928,32.2523094 C67.7402928,32.2523094 51.8681772,36.1839848 35.1516832,32.2523094" id="Fill-32" fill="url(#linearGradient-3)"></path>
                    <path d="M35.1516832,30.1395303 L35.1516832,32.0610717 C51.8681772,35.9542552 67.7402928,32.0610717 67.7402928,32.0610717 L67.7402928,30.1395303 C67.7402928,30.1395303 51.8681772,34.0712057 35.1516832,30.1395303" id="Fill-34" fill="url(#linearGradient-3)"></path>
                    <path d="M35.1516832,28.0010899 L35.1516832,29.9226313 C51.8681772,33.8158148 67.7402928,29.9226313 67.7402928,29.9226313 L67.7402928,28.0010899 C67.7402928,28.0010899 51.8681772,31.9333763 35.1516832,28.0010899" id="Fill-36" fill="url(#linearGradient-3)"></path>
                    <path d="M35.1516832,27.8098522 C51.8681772,31.7024247 67.7402928,27.8098522 67.7402928,27.8098522 L67.7402928,25.8876998 C67.7402928,25.8876998 51.8681772,29.8199862 35.1516832,25.8876998 L35.1516832,27.8098522 Z" id="Fill-38" fill="url(#linearGradient-3)"></path>
                    <g id="Group-42" transform="translate(0.000000, 19.951389)" fill="url(#linearGradient-3)">
                        <path d="M0.122196594,2.403607 C0.122196594,2.403607 18.2470064,5.13286792 32.7101952,2.403607 L32.7101952,1.68509103 C32.7101952,0.763117728 24.8156843,0.322599008 16.7989767,0.322599008 C8.52565635,0.321988025 0.122196594,0.791222945 0.122196594,1.68509103 L0.122196594,2.403607 Z" id="Fill-40"></path>
                    </g>
                    <path d="M32.6961426,21.577215 C32.6252686,21.5949335 25.5366442,23.3221823 16.000422,23.3227933 C10.3995411,23.3227933 5.0619939,22.7356387 0.136249202,21.577215 L0.0610982969,21.5594965 L0.0610982969,23.6069004 L0.108143986,23.6178981 C5.04244244,24.767157 10.3897654,25.3500348 16.000422,25.3500348 C25.5537517,25.3500348 32.6545958,23.6350056 32.7254698,23.6178981 L32.7719045,23.6062894 L32.7719045,21.5582745 L32.6961426,21.577215 Z" id="Fill-43" fill="url(#linearGradient-3)"></path>
                    <path d="M32.8330028,21.4801909 L32.681479,21.5180718 C32.611216,21.5351793 25.5280904,23.2618172 16.001033,23.2618172 C10.403818,23.2618172 5.07115864,22.6746626 0.15030181,21.5174608 L0,21.4820238 L0,21.6366025 L0,23.5581439 L0,23.6559012 L0.0947023602,23.6772856 C5.0332777,24.8277666 10.3848775,25.4112553 16.001033,25.4112553 C25.5610835,25.4112553 32.6692594,23.6943931 32.7401334,23.6772856 L32.8330028,23.6546793 L32.8330028,23.5581439 L32.8330028,21.6366025 L32.8330028,21.4801909 Z M32.7108062,21.6366025 L32.7108062,23.5581439 C32.7108062,23.5581439 25.6570078,25.2884477 16.001033,25.2884477 C11.1730456,25.2884477 5.69436127,24.8558718 0.122196594,23.5581439 L0.122196594,21.6366025 C5.69497225,22.947161 11.1724346,23.3840138 16.001033,23.3840138 C25.6557858,23.3840138 32.7108062,21.6366025 32.7108062,21.6366025 Z" id="Fill-45" fill="#FFFFFF"></path>
                    <path d="M35.1516832,23.7492594 L35.1516832,24.4677754 C35.1516832,24.4677754 53.2764929,27.1970363 67.7402928,24.4677754 L67.7402928,23.7492594 C67.7402928,22.8272861 59.8445598,22.3867674 51.8266303,22.3867674 C43.5545319,22.3867674 35.1516832,22.8553913 35.1516832,23.7492594" id="Fill-47" fill="url(#linearGradient-3)"></path>
                    <path d="M67.7262401,23.6899941 C67.6553661,23.7071016 60.5673527,25.4355724 51.0305195,25.4355724 C45.4290277,25.4361834 40.0914805,24.8490288 35.1663467,23.6899941 L35.0911958,23.6722756 L35.0911958,25.7196795 L35.1382415,25.7306772 C40.07254,26.8799361 45.4192519,27.4628139 51.0305195,27.4628139 L51.0317415,27.4628139 C60.5838492,27.4628139 67.6840823,25.7477847 67.7549563,25.7306772 L67.802002,25.7196795 L67.802002,23.6710536 L67.7262401,23.6899941 Z" id="Fill-49" fill="url(#linearGradient-3)"></path>
                    <path d="M67.8624893,23.5932755 L67.7109656,23.6311564 C67.6407025,23.6482639 60.558188,25.3749018 51.0305195,25.3749018 C45.4339155,25.3749018 40.1006452,24.7883582 35.1797884,23.6305454 L35.0294866,23.5951084 L35.0294866,23.7490761 L35.0294866,25.6712285 L35.0294866,25.7683748 L35.1241889,25.7903702 C40.0627643,26.9408512 45.4149751,27.5237289 51.0305195,27.5237289 C60.591181,27.5237289 67.6987459,25.8074777 67.7696199,25.7903702 L67.8624893,25.7671529 L67.8624893,25.6712285 L67.8624893,23.7490761 L67.8624893,23.5932755 Z M67.7402928,23.7490761 L67.7402928,25.6712285 C67.7402928,25.6712285 60.6864944,27.4015323 51.0305195,27.4015323 C46.2025321,27.4015323 40.7238478,26.9689564 35.1516832,25.6712285 L35.1516832,23.7490761 C40.7244588,25.0602456 46.2019211,25.4970984 51.0305195,25.4970984 C60.6852724,25.4970984 67.7402928,23.7490761 67.7402928,23.7490761 Z" id="Fill-51" fill="#FFFFFF"></path>
                    <path d="M13.5014405,22.2284006 C13.5393215,22.1886867 13.5772024,22.1453069 13.6181383,22.1031491 C13.7287262,21.9852294 13.8393141,21.8679207 13.951735,21.7500009 C13.9621217,21.7396142 13.9437922,21.7335044 13.9065223,21.7267836 C13.4073492,21.6375801 12.9045102,21.5489875 12.4071701,21.460395 C12.2898613,21.4390106 12.1731636,21.4182372 12.0552439,21.3974638 C11.943434,21.3773013 11.8969993,21.353473 11.9446559,21.3253678 C11.9959785,21.2972626 12.1175641,21.2844319 12.2770307,21.2795441 C13.1311849,21.2575487 13.9853391,21.2349423 14.8394933,21.2117249 C14.8749303,21.210503 14.9176991,21.2025602 14.9396945,21.1952284 C15.316671,21.0565353 15.6924255,20.9172312 16.06818,20.7773161 C16.1610494,20.743712 16.3095183,20.7296594 16.5062548,20.7376022 C16.6351722,20.74249 16.7115451,20.7583756 16.7659226,20.778538 C17.1380112,20.9172312 17.5180426,21.0565353 17.8913532,21.1952284 C17.9188474,21.2068371 17.9579503,21.211114 18.0257694,21.2135579 C18.8780907,21.2349423 19.7304119,21.2575487 20.5802892,21.280766 C20.7299801,21.2850429 20.8436229,21.2997065 20.8906686,21.3272007 C20.9358813,21.354695 20.8845587,21.3785233 20.7721379,21.3986857 C20.230196,21.495221 19.6876431,21.5917564 19.1444793,21.6882917 C19.0839919,21.6986784 19.0259486,21.7102871 18.9587404,21.7200628 C18.8872554,21.7310605 18.8695369,21.7426691 18.8872554,21.7591657 C19.0326694,21.9113004 19.1725845,22.0634352 19.3179984,22.21557 C19.3461036,22.2436752 19.3088337,22.2693365 19.1774723,22.287055 C19.046722,22.3041625 18.9074179,22.3017186 18.7693357,22.2888879 C18.0184376,22.216181 17.2681506,22.1446959 16.5184745,22.071989 C16.4451565,22.0646572 16.390779,22.0640462 16.3162391,22.071989 C15.5732838,22.144085 14.8272736,22.214959 14.0818744,22.287055 C13.9578448,22.2986637 13.8319823,22.3041625 13.6981771,22.2913319 C13.5649828,22.2785012 13.5063284,22.2577278 13.5014405,22.2284006" id="Fill-53" fill="#FFFFFF"></path>
                    <g id="Group-3" transform="translate(0.000000, 19.000000)">
                        <mask id="mask-13" fill="white">
                            <use xlink:href="#path-12"></use>
                        </mask>
                        <g id="Clip-2"></g>
                        <path d="M0.122196594,0.00488786375 L0.122196594,1.9264293 C16.8393016,5.81961278 32.7101952,1.9264293 32.7101952,1.9264293 L32.7101952,0.00488786375 C32.7101952,0.00488786375 16.8393016,3.93717425 0.122196594,0.00488786375" id="Fill-1" fill="url(#linearGradient-3)" mask="url(#mask-13)"></path>
                    </g>
                    <path d="M0,17 L0,18.9221524 C16.717105,22.8159469 32.5879986,18.9221524 32.5879986,18.9221524 L32.5879986,17 C32.5879986,17 16.717105,20.9322864 0,17" id="Fill-4" fill="url(#linearGradient-3)"></path>
                    <g id="Group-8" transform="translate(0.000000, 15.000000)">
                        <mask id="mask-15" fill="white">
                            <use xlink:href="#path-14"></use>
                        </mask>
                        <g id="Clip-7"></g>
                        <path d="M0.122196594,0.0305491484 L0.122196594,1.95209059 C16.8393016,5.84527406 32.7101952,1.95209059 32.7101952,1.95209059 L32.7101952,0.0305491484 C32.7101952,0.0305491484 16.8393016,3.96222455 0.122196594,0.0305491484" id="Fill-6" fill="url(#linearGradient-3)" mask="url(#mask-15)"></path>
                    </g>
                    <path d="M0,13 L0,14.9221524 C16.717105,18.8153359 32.5879986,14.9221524 32.5879986,14.9221524 L32.5879986,13 C32.5879986,13 16.717105,16.9316754 0,13" id="Fill-9" fill="url(#linearGradient-3)"></path>
                    <path d="M0,11 L0,12.9221524 C16.717105,16.8153359 32.5879986,12.9221524 32.5879986,12.9221524 L32.5879986,11 C32.5879986,11 16.717105,14.9316754 0,11" id="Fill-11" fill="url(#linearGradient-3)"></path>
                    <path d="M0,9 L0,10.9215414 C16.717105,14.8147249 32.5879986,10.9215414 32.5879986,10.9215414 L32.5879986,9 C32.5879986,9 16.717105,12.9316754 0,9" id="Fill-13" fill="url(#linearGradient-3)"></path>
                    <path d="M0,7 L0,8.92154144 C16.717105,12.8147249 32.5879986,8.92154144 32.5879986,8.92154144 L32.5879986,7 C32.5879986,7 16.717105,10.9322864 0,7" id="Fill-15" fill="url(#linearGradient-3)"></path>
                    <path d="M0,5 L0,6.92215242 C16.717105,10.8147249 32.5879986,6.92215242 32.5879986,6.92215242 L32.5879986,5 C32.5879986,5 16.717105,8.93228639 0,5" id="Fill-17" fill="url(#linearGradient-3)"></path>
                    <g id="Group-21" transform="translate(0.000000, 3.000000)">
                        <mask id="mask-17" fill="white">
                            <use xlink:href="#path-16"></use>
                        </mask>
                        <g id="Clip-20"></g>
                        <path d="M0.122196594,0.131972321 L0.122196594,2.05412474 C16.8393016,5.94730822 32.7101952,2.05412474 32.7101952,2.05412474 L32.7101952,0.131972321 C32.7101952,0.131972321 16.8393016,4.06425871 0.122196594,0.131972321" id="Fill-19" fill="url(#linearGradient-3)" mask="url(#mask-17)"></path>
                    </g>
                    <path d="M0,1.36249202 L0,2.08100799 C0,2.08100799 18.1248098,4.81026891 32.5886096,2.08100799 L32.5886096,1.36249202 C32.5886096,0.440518721 24.6928767,0 16.6749472,0 C8.40284877,0 0,0.468623937 0,1.36249202" id="Fill-47" fill="url(#linearGradient-3)"></path>
                    <g id="Group-42" fill="url(#linearGradient-3)">
                        <path d="M0.122196594,2.403607 C0.122196594,2.403607 18.2470064,5.13286792 32.7101952,2.403607 L32.7101952,1.68509103 C32.7101952,0.763117728 24.8156843,0.322599008 16.7989767,0.322599008 C8.52565635,0.321988025 0.122196594,0.791222945 0.122196594,1.68509103 L0.122196594,2.403607 Z" id="Fill-40"></path>
                    </g>
                    <path d="M32.6350443,1.01894047 C32.5641703,1.03665898 25.4755459,2.76390783 15.9393237,2.76451881 C10.3384428,2.76451881 5.0008956,2.17736418 0.0751509052,1.01894047 L0,1.00122197 L0,3.04862589 L0.0470456886,3.05962359 C4.98134415,4.20888255 10.3286671,4.79176031 15.9393237,4.79176031 C25.4926534,4.79176031 32.5934975,3.07673111 32.6643715,3.05962359 L32.7108062,3.04801491 L32.7108062,1 L32.6350443,1.01894047 Z" id="Fill-43" fill="url(#linearGradient-3)"></path>
                    <path d="M32.8330028,1 L32.681479,1.03788094 C32.611216,1.05498847 25.5280904,2.78162634 16.001033,2.78162634 C10.403818,2.78162634 5.07115864,2.1944717 0.15030181,1.03726996 L0,1.00183295 L0,1.15641164 L0,3.07795308 L0,3.17571035 L0.0947023602,3.19709476 C5.0332777,4.34757569 10.3848775,4.93106442 16.001033,4.93106442 C25.5610835,4.93106442 32.6692594,3.21420228 32.7401334,3.19709476 L32.8330028,3.17448839 L32.8330028,3.07795308 L32.8330028,1.15641164 L32.8330028,1 Z M32.7108062,1.15641164 L32.7108062,3.07795308 C32.7108062,3.07795308 25.6570078,4.80825685 16.001033,4.80825685 C11.1730456,4.80825685 5.69436127,4.3756809 0.122196594,3.07795308 L0.122196594,1.15641164 C5.69497225,2.46697011 11.1724346,2.90382293 16.001033,2.90382293 C25.6557858,2.90382293 32.7108062,1.15641164 32.7108062,1.15641164 Z" id="Fill-45" fill="#FFFFFF"></path>
                    <path d="M13.5753837,1.49296422 C13.6132646,1.45325033 13.6511456,1.40987054 13.6920814,1.36771271 C13.8026694,1.249793 13.9132573,1.13248427 14.0256781,1.01456456 C14.0360648,1.00417784 14.0177354,0.998068015 13.9804654,0.991347202 C13.4812923,0.902143689 12.9784533,0.813551158 12.4811132,0.724958628 C12.3638045,0.703574224 12.2471067,0.682800803 12.129187,0.662027382 C12.0173771,0.641864944 11.9709424,0.618036608 12.0185991,0.589931392 C12.0699217,0.561826175 12.1915073,0.548995533 12.3509738,0.544107669 C13.205128,0.522112282 14.0592822,0.499505912 14.9134364,0.476288559 C14.9488734,0.475066593 14.9916422,0.467123815 15.0136376,0.459792019 C15.3906141,0.321098885 15.7663686,0.181794768 16.1421231,0.0418796685 C16.2349925,0.00827560518 16.3834614,-0.00577700311 16.5801979,0.00216577549 C16.7091153,0.00705363924 16.7854882,0.0229391964 16.8398657,0.0431016344 C17.2119543,0.181794768 17.5919857,0.321098885 17.9652963,0.459792019 C17.9927906,0.471400696 18.0318935,0.475677576 18.0997126,0.478121508 C18.9520338,0.499505912 19.8043551,0.522112282 20.6542324,0.545329635 C20.8039232,0.549606516 20.917566,0.564270107 20.9646117,0.591764341 C21.0098245,0.619258574 20.9585019,0.64308691 20.846081,0.663249348 C20.3041391,0.759784657 19.7615862,0.856319966 19.2184224,0.952855275 C19.1579351,0.963241986 19.0998917,0.974850662 19.0326836,0.98462639 C18.9611986,0.995624083 18.9434801,1.00723276 18.9611986,1.0237293 C19.1066125,1.17586406 19.2465276,1.32799882 19.3919416,1.48013358 C19.4200468,1.50823879 19.3827768,1.53390008 19.2514155,1.55161858 C19.1206651,1.56872611 18.981361,1.56628218 18.8432788,1.55345153 C18.0923808,1.48074456 17.3420937,1.40925955 16.5924176,1.33655258 C16.5190996,1.32922078 16.4647221,1.3286098 16.3901822,1.33655258 C15.6472269,1.40864857 14.9012167,1.47952259 14.1558175,1.55161858 C14.031788,1.56322726 13.9059255,1.56872611 13.7721202,1.55589547 C13.6389259,1.54306482 13.5802715,1.5222914 13.5753837,1.49296422" id="Fill-53" fill="#FFFFFF"></path>
                    <path d="M48.5312326,24.4605047 C48.5691135,24.4207908 48.6069945,24.377411 48.6473194,24.3352532 C48.7585183,24.2173335 48.8691062,24.1000247 48.9809161,23.982105 C48.9919138,23.9717183 48.9735843,23.9656085 48.9363143,23.9588877 C48.4371412,23.8702951 47.9343022,23.7810916 47.4369621,23.6924991 C47.3196534,23.6711147 47.2029556,23.6503413 47.0850359,23.6295679 C46.973226,23.6094054 46.9261803,23.5855771 46.974448,23.5580828 C47.0251596,23.5299776 47.1467452,23.516536 47.3062117,23.5122591 C48.1609769,23.4896528 49.0151311,23.4676574 49.8692853,23.443829 C49.9047223,23.4426071 49.9474911,23.4346643 49.9694865,23.4273325 C50.346463,23.2886394 50.7222175,23.1493352 51.0979721,23.0100311 C51.1908415,22.9758161 51.3393103,22.9617635 51.5354359,22.9697062 C51.6649642,22.9745941 51.7413371,22.9904797 51.7951036,23.0106421 C52.1678032,23.1493352 52.5478346,23.2886394 52.9211452,23.4273325 C52.9486395,23.4389412 52.9877424,23.443218 53.0555615,23.445662 C53.9078827,23.4676574 54.760204,23.4896528 55.6100813,23.5128701 C55.7591611,23.517147 55.8734149,23.5318106 55.9198496,23.5593048 C55.9656734,23.58741 55.9143508,23.6106274 55.8019299,23.6307898 C55.259988,23.7273251 54.7174352,23.8238604 54.1742713,23.9203957 C54.113784,23.9307825 54.0557406,23.9430021 53.9885325,23.9521669 C53.9170475,23.9631646 53.898718,23.9747732 53.9170475,23.9912698 C54.0624614,24.1434045 54.2023765,24.2955393 54.3477905,24.447674 C54.3758957,24.4763902 54.3386257,24.5014405 54.2072644,24.5191591 C54.076514,24.5362666 53.9365989,24.5338226 53.7985168,24.520992 C53.0482297,24.448285 52.2973316,24.3768 51.5482665,24.3040931 C51.4749485,24.2967613 51.4205711,24.2961503 51.3460311,24.3040931 C50.6024649,24.376189 49.8570656,24.4470631 49.1116664,24.5191591 C48.9876369,24.5307677 48.8617744,24.5368776 48.7273581,24.5234359 C48.5941638,24.5106053 48.5361205,24.4898319 48.5312326,24.4605047" id="Fill-55" fill="#FFFFFF"></path>
                    <g id="Group-24" transform="translate(34.826029, 25.724810)">
                        <mask id="mask-19" fill="white">
                            <use xlink:href="#path-18"></use>
                        </mask>
                        <g id="Clip-23"></g>
                        <path d="M0.325653922,0.00488786375 L0.325653922,1.9264293 C17.042148,5.81961278 32.9142635,1.9264293 32.9142635,1.9264293 L32.9142635,0.00488786375 C32.9142635,0.00488786375 17.042148,3.93717425 0.325653922,0.00488786375" id="Fill-22" fill="url(#linearGradient-3)" mask="url(#mask-19)"></path>
                    </g>
                    <path d="M35.1516832,23.616308 L35.1516832,25.5384604 C51.8681772,29.4322549 67.7402928,25.5384604 67.7402928,25.5384604 L67.7402928,23.616308 C67.7402928,23.616308 51.8681772,27.5485944 35.1516832,23.616308" id="Fill-25" fill="url(#linearGradient-3)"></path>
                    <g id="Group-29" transform="translate(34.826029, 21.447929)">
                        <mask id="mask-21" fill="white">
                            <use xlink:href="#path-20"></use>
                        </mask>
                        <g id="Clip-28"></g>
                        <path d="M0.325653922,1.95209059 C17.042148,5.84527406 32.9142635,1.95209059 32.9142635,1.95209059 L32.9142635,0.0305491484 C32.9142635,0.0305491484 17.042148,3.96222455 0.325653922,0.0305491484 L0.325653922,1.95209059 Z" id="Fill-27" fill="url(#linearGradient-3)" mask="url(#mask-21)"></path>
                    </g>
                    <path d="M35.1516832,19.3650885 L35.1516832,21.2872409 C51.8681772,25.1804244 67.7402928,21.2872409 67.7402928,21.2872409 L67.7402928,19.3650885 C67.7402928,19.3650885 51.8681772,23.2967639 35.1516832,19.3650885" id="Fill-30" fill="url(#linearGradient-3)"></path>
                    <path d="M35.1516832,17.2523094 L35.1516832,19.1744618 C51.8681772,23.0676453 67.7402928,19.1744618 67.7402928,19.1744618 L67.7402928,17.2523094 C67.7402928,17.2523094 51.8681772,21.1839848 35.1516832,17.2523094" id="Fill-32" fill="url(#linearGradient-3)"></path>
                    <path d="M35.1516832,15.1395303 L35.1516832,17.0610717 C51.8681772,20.9542552 67.7402928,17.0610717 67.7402928,17.0610717 L67.7402928,15.1395303 C67.7402928,15.1395303 51.8681772,19.0712057 35.1516832,15.1395303" id="Fill-34" fill="url(#linearGradient-3)"></path>
                    <path d="M35.1516832,13.0010899 L35.1516832,14.9226313 C51.8681772,18.8158148 67.7402928,14.9226313 67.7402928,14.9226313 L67.7402928,13.0010899 C67.7402928,13.0010899 51.8681772,16.9333763 35.1516832,13.0010899" id="Fill-36" fill="url(#linearGradient-3)"></path>
                    <path d="M35.1516832,12.8098522 C51.8681772,16.7024247 67.7402928,12.8098522 67.7402928,12.8098522 L67.7402928,10.8876998 C67.7402928,10.8876998 51.8681772,14.8199862 35.1516832,10.8876998 L35.1516832,12.8098522 Z" id="Fill-38" fill="url(#linearGradient-3)"></path>
                    <path d="M35.1516832,8.74925942 L35.1516832,9.46777539 C35.1516832,9.46777539 53.2764929,12.1970363 67.7402928,9.46777539 L67.7402928,8.74925942 C67.7402928,7.82728612 59.8445598,7.3867674 51.8266303,7.3867674 C43.5545319,7.3867674 35.1516832,7.85539133 35.1516832,8.74925942" id="Fill-47" fill="url(#linearGradient-3)"></path>
                    <path d="M67.7262401,8.68999407 C67.6553661,8.70710159 60.5673527,10.4355724 51.0305195,10.4355724 C45.4290277,10.4361834 40.0914805,9.84902876 35.1663467,8.68999407 L35.0911958,8.67227556 L35.0911958,10.7196795 L35.1382415,10.7306772 C40.07254,11.8799361 45.4192519,12.4628139 51.0305195,12.4628139 L51.0317415,12.4628139 C60.5838492,12.4628139 67.6840823,10.7477847 67.7549563,10.7306772 L67.802002,10.7196795 L67.802002,8.6710536 L67.7262401,8.68999407 Z" id="Fill-49" fill="url(#linearGradient-3)"></path>
                    <path d="M67.8624893,8.59327546 L67.7109656,8.63115641 C67.6407025,8.64826393 60.558188,10.3749018 51.0305195,10.3749018 C45.4339155,10.3749018 40.1006452,9.78835815 35.1797884,8.63054543 L35.0294866,8.59510841 L35.0294866,8.74907612 L35.0294866,10.6712285 L35.0294866,10.7683748 L35.1241889,10.7903702 C40.0627643,11.9408512 45.4149751,12.5237289 51.0305195,12.5237289 C60.591181,12.5237289 67.6987459,10.8074777 67.7696199,10.7903702 L67.8624893,10.7671529 L67.8624893,10.6712285 L67.8624893,8.74907612 L67.8624893,8.59327546 Z M67.7402928,8.74907612 L67.7402928,10.6712285 C67.7402928,10.6712285 60.6864944,12.4015323 51.0305195,12.4015323 C46.2025321,12.4015323 40.7238478,11.9689564 35.1516832,10.6712285 L35.1516832,8.74907612 C40.7244588,10.0602456 46.2019211,10.4970984 51.0305195,10.4970984 C60.6852724,10.4970984 67.7402928,8.74907612 67.7402928,8.74907612 Z" id="Fill-51" fill="#FFFFFF"></path>
                    <path d="M48.5312326,9.46050469 C48.5691135,9.4207908 48.6069945,9.37741101 48.6473194,9.33525318 C48.7585183,9.21733347 48.8691062,9.10002474 48.9809161,8.98210503 C48.9919138,8.97171832 48.9735843,8.96560849 48.9363143,8.95888767 C48.4371412,8.87029514 47.9343022,8.78109163 47.4369621,8.6924991 C47.3196534,8.67111469 47.2029556,8.65034127 47.0850359,8.62956785 C46.973226,8.60940542 46.9261803,8.58557708 46.974448,8.55808285 C47.0251596,8.52997763 47.1467452,8.516536 47.3062117,8.51225912 C48.1609769,8.48965275 49.0151311,8.46765737 49.8692853,8.44382903 C49.9047223,8.44260706 49.9474911,8.43466429 49.9694865,8.42733249 C50.346463,8.28863936 50.7222175,8.14933524 51.0979721,8.01003112 C51.1908415,7.97581608 51.3393103,7.96176347 51.5354359,7.96970625 C51.6649642,7.97459411 51.7413371,7.99047967 51.7951036,8.01064211 C52.1678032,8.14933524 52.5478346,8.28863936 52.9211452,8.42733249 C52.9486395,8.43894117 52.9877424,8.44321805 53.0555615,8.44566198 C53.9078827,8.46765737 54.760204,8.48965275 55.6100813,8.51287011 C55.7591611,8.51714699 55.8734149,8.53181058 55.9198496,8.55930481 C55.9656734,8.58741003 55.9143508,8.61062738 55.8019299,8.63078982 C55.259988,8.72732513 54.7174352,8.82386044 54.1742713,8.92039575 C54.113784,8.93078246 54.0557406,8.94300212 53.9885325,8.95216686 C53.9170475,8.96316455 53.898718,8.97477323 53.9170475,8.99126977 C54.0624614,9.14340453 54.2023765,9.29553929 54.3477905,9.44767405 C54.3758957,9.47639025 54.3386257,9.50144055 54.2072644,9.51915906 C54.076514,9.53626658 53.9365989,9.53382265 53.7985168,9.520992 C53.0482297,9.44828503 52.2973316,9.37680002 51.5482665,9.30409305 C51.4749485,9.29676126 51.4205711,9.29615027 51.3460311,9.30409305 C50.6024649,9.37618904 49.8570656,9.44706307 49.1116664,9.51915906 C48.9876369,9.53076773 48.8617744,9.53687756 48.7273581,9.52343594 C48.5941638,9.51060529 48.5361205,9.48983187 48.5312326,9.46050469" id="Fill-55" fill="#FFFFFF"></path>
                    <g id="Group-60" transform="translate(23.828336, 11.397628)">
                        <mask id="mask-23" fill="white">
                            <use xlink:href="#path-22"></use>
                        </mask>
                        <g id="Clip-59"></g>
                        <path d="M16.9382808,0.213233056 C7.88656816,0.213233056 0.548662706,7.55113851 0.548662706,16.6034622 C0.548662706,25.6551749 7.88656816,32.9930803 16.9382808,32.9930803 C25.9899935,32.9930803 33.32851,25.6551749 33.32851,16.6034622 C33.32851,7.55113851 25.9899935,0.213233056 16.9382808,0.213233056 Z" id="Fill-58" fill="url(#linearGradient-3)" mask="url(#mask-23)"></path>
                    </g>
                    <g id="Group-65" transform="translate(28.105217, 15.063526)">
                        <path d="M25.0119931,12.9372589 C25.0119931,19.7582727 19.4825972,25.2876686 12.6615834,25.2876686 C5.8405695,25.2876686 0.310562643,19.7582727 0.310562643,12.9372589 C0.310562643,6.11624501 5.8405695,0.586849142 12.6615834,0.586849142 C19.4825972,0.586849142 25.0119931,6.11624501 25.0119931,12.9372589 Z" id="Stroke-61" stroke="#FFFFFF"></path>
                        <path d="M8.0646697,19.0775155 C8.12393505,18.7316992 8.18381138,18.3614435 8.24796459,17.9954647 C8.42270572,16.9769561 8.59683586,15.9639463 8.77463191,14.9460487 C8.79112845,14.8556232 8.76180127,14.8036896 8.70253592,14.7450353 C7.91558985,13.9788626 7.12314494,13.21269 6.33925379,12.4452954 C6.15351497,12.2650554 5.97022008,12.0817605 5.78448126,11.9033535 C5.60790718,11.7310563 5.53336726,11.5239331 5.60912915,11.2844277 C5.6897789,11.0394236 5.88162755,10.9245588 6.13274155,10.8872888 C7.48056998,10.6929962 8.82778743,10.5011476 10.1743939,10.2995232 C10.2306043,10.2891365 10.2978125,10.2182625 10.3326385,10.1565532 C10.9271249,8.95658264 11.5197784,7.75477914 12.1118209,6.55175367 C12.2584568,6.25970381 12.4930743,6.13750722 12.8028426,6.20593731 C13.0063,6.24748415 13.1272746,6.38251139 13.2122012,6.55969645 C13.7993558,7.75722307 14.3987301,8.95658264 14.9871067,10.1565532 C15.0304865,10.2536995 15.0928068,10.2964683 15.1997288,10.3141868 C16.5438913,10.5011476 17.8874429,10.6954402 19.2279395,10.8952316 C19.463168,10.9300576 19.642797,11.0583641 19.7167259,11.2966474 C19.7888219,11.5361527 19.7075612,11.740832 19.5309871,11.9131292 C18.6756109,12.74651 17.8196238,13.5798908 16.9636366,14.4126605 C16.8677123,14.5018641 16.7760649,14.6069531 16.6703648,14.6912688 C16.557944,14.7816943 16.5292278,14.8812845 16.557944,15.0260875 C16.7870626,16.3384789 17.0076274,17.6527032 17.237357,18.9638727 C17.2813478,19.2125428 17.2226934,19.4306637 17.0149592,19.5827984 C16.8096689,19.7282124 16.5891041,19.7104939 16.3715941,19.596851 C15.1881201,18.9724264 14.0040351,18.3541117 12.8230051,17.7278541 C12.7069183,17.6649229 12.6213807,17.661257 12.503461,17.7254102 C11.3309847,18.3492238 10.1554534,18.9626507 8.98053317,19.5827984 C8.78379665,19.6829996 8.58583817,19.7331002 8.37443806,19.6219013 C8.16425992,19.5076475 8.07200149,19.3292405 8.0646697,19.0775155" id="Fill-63" fill="#FFFFFF"></path>
                    </g>
                </g>
            </g>
        </g>
    </g>
</svg>